%YAML 1.1
%TAG !u! tag:unity3d.com,2011:
--- !u!1 &7198140165033463262
GameObject:
  m_ObjectHideFlags: 0
  m_CorrespondingSourceObject: {fileID: 0}
  m_PrefabInstance: {fileID: 0}
  m_PrefabAsset: {fileID: 0}
  serializedVersion: 6
  m_Component:
  - component: {fileID: 553229645811798376}
  - component: {fileID: 4720055893051134016}
  m_Layer: 0
  m_Name: ItemToSell
  m_TagString: Untagged
  m_Icon: {fileID: 0}
  m_NavMeshLayer: 0
  m_StaticEditorFlags: 0
  m_IsActive: 1
--- !u!4 &553229645811798376
Transform:
  m_ObjectHideFlags: 0
  m_CorrespondingSourceObject: {fileID: 0}
  m_PrefabInstance: {fileID: 0}
  m_PrefabAsset: {fileID: 0}
  m_GameObject: {fileID: 7198140165033463262}
  m_LocalRotation: {x: -0, y: -0, z: -0, w: 1}
  m_LocalPosition: {x: 0, y: 0, z: 0}
  m_LocalScale: {x: 1, y: 1, z: 1}
  m_Children: []
  m_Father: {fileID: 0}
  m_RootOrder: 0
  m_LocalEulerAnglesHint: {x: 0, y: 0, z: 0}
--- !u!114 &4720055893051134016
MonoBehaviour:
  m_ObjectHideFlags: 0
  m_CorrespondingSourceObject: {fileID: 0}
  m_PrefabInstance: {fileID: 0}
  m_PrefabAsset: {fileID: 0}
  m_GameObject: {fileID: 7198140165033463262}
  m_Enabled: 1
  m_EditorHideFlags: 0
  m_Script: {fileID: 11500000, guid: 3e6b4c10fef4f4c43a230b5474a2c5de, type: 3}
  m_Name: 
  m_EditorClassIdentifier: 
  title: 
  type: 
  buyValue: 0
  EstValue: 0
  visual: {fileID: 0}
  itemImage: {fileID: 0}
  itemId: 0
  itemUniqueIdInShelf: 0
  itemType: 0
  itemCond: 0
  itemImagesAccToType:
  - {fileID: 21300000, guid: 15ae42bd821861043838e1ca5212297b, type: 3}
  - {fileID: 21300000, guid: 7f9eb272e8fd49c479c1331e0849277a, type: 3}
  - {fileID: 21300000, guid: 505a6eefbdf13fd4881fdb7f7e0c546f, type: 3}
  - {fileID: 21300000, guid: 607be41fc17aa074ea4be55baf3c3480, type: 3}
  - {fileID: 21300000, guid: 67f97bebc756450478ed0811b6c2c6d0, type: 3}
  - {fileID: 21300000, guid: 8606995cba135ba47a2f8a7c2cbdaa5d, type: 3}
  - {fileID: 21300000, guid: ee573e53ac18e2a42b697e2af5e6196e, type: 3}
  matRend: {fileID: 0}
  transMatItem: {fileID: 2100000, guid: 4a19a3f214610f24b9219a9568a997a4, type: 2}
  myMat: {fileID: 0}
  nonPolishedMat: {fileID: 0}
  polishedMat: {fileID: 0}
  itemData: {fileID: 11400000, guid: 4cee251115f620c4bbdfdcdff9279a4c, type: 2}
  polished: 0
