%YAML 1.1
%TAG !u! tag:unity3d.com,2011:
--- !u!1 &8697197086097740219
GameObject:
  m_ObjectHideFlags: 0
  m_CorrespondingSourceObject: {fileID: 0}
  m_PrefabInstance: {fileID: 0}
  m_PrefabAsset: {fileID: 0}
  serializedVersion: 6
  m_Component:
  - component: {fileID: 3044045226065939939}
  - component: {fileID: 8063631726757877652}
  m_Layer: 0
  m_Name: thiefStrap
  m_TagString: Untagged
  m_Icon: {fileID: 0}
  m_NavMeshLayer: 0
  m_StaticEditorFlags: 0
  m_IsActive: 1
--- !u!4 &3044045226065939939
Transform:
  m_ObjectHideFlags: 0
  m_CorrespondingSourceObject: {fileID: 0}
  m_PrefabInstance: {fileID: 0}
  m_PrefabAsset: {fileID: 0}
  m_GameObject: {fileID: 8697197086097740219}
  m_LocalRotation: {x: -0, y: -0, z: -0, w: 1}
  m_LocalPosition: {x: 0.0015, y: 2.508, z: 0.15499973}
  m_LocalScale: {x: 1, y: 1, z: 1}
  m_Children:
  - {fileID: 2349934359849954855}
  m_Father: {fileID: 0}
  m_RootOrder: 0
  m_LocalEulerAnglesHint: {x: 0, y: 0, z: 0}
--- !u!114 &8063631726757877652
MonoBehaviour:
  m_ObjectHideFlags: 0
  m_CorrespondingSourceObject: {fileID: 0}
  m_PrefabInstance: {fileID: 0}
  m_PrefabAsset: {fileID: 0}
  m_GameObject: {fileID: 8697197086097740219}
  m_Enabled: 1
  m_EditorHideFlags: 0
  m_Script: {fileID: 11500000, guid: 2e21fead0ab519b459212be476246989, type: 3}
  m_Name: 
  m_EditorClassIdentifier: 
--- !u!1001 &7342573933676119357
PrefabInstance:
  m_ObjectHideFlags: 0
  serializedVersion: 2
  m_Modification:
    m_TransformParent: {fileID: 3044045226065939939}
    m_Modifications:
    - target: {fileID: -4216859302048453862, guid: 4c12332910d4eea4c88123329534a2fd,
        type: 3}
      propertyPath: m_LocalPosition.x
      value: 0
      objectReference: {fileID: 0}
    - target: {fileID: -4216859302048453862, guid: 4c12332910d4eea4c88123329534a2fd,
        type: 3}
      propertyPath: m_LocalPosition.y
      value: 0
      objectReference: {fileID: 0}
    - target: {fileID: -4216859302048453862, guid: 4c12332910d4eea4c88123329534a2fd,
        type: 3}
      propertyPath: m_LocalPosition.z
      value: 0
      objectReference: {fileID: 0}
    - target: {fileID: -4216859302048453862, guid: 4c12332910d4eea4c88123329534a2fd,
        type: 3}
      propertyPath: m_LocalRotation.x
      value: -0
      objectReference: {fileID: 0}
    - target: {fileID: -4216859302048453862, guid: 4c12332910d4eea4c88123329534a2fd,
        type: 3}
      propertyPath: m_LocalRotation.y
      value: -0
      objectReference: {fileID: 0}
    - target: {fileID: -4216859302048453862, guid: 4c12332910d4eea4c88123329534a2fd,
        type: 3}
      propertyPath: m_LocalRotation.z
      value: -0
      objectReference: {fileID: 0}
    - target: {fileID: -4216859302048453862, guid: 4c12332910d4eea4c88123329534a2fd,
        type: 3}
      propertyPath: m_LocalRotation.w
      value: 1
      objectReference: {fileID: 0}
    - target: {fileID: -4216859302048453862, guid: 4c12332910d4eea4c88123329534a2fd,
        type: 3}
      propertyPath: m_RootOrder
      value: 0
      objectReference: {fileID: 0}
    - target: {fileID: -4216859302048453862, guid: 4c12332910d4eea4c88123329534a2fd,
        type: 3}
      propertyPath: m_LocalEulerAnglesHint.x
      value: 0
      objectReference: {fileID: 0}
    - target: {fileID: -4216859302048453862, guid: 4c12332910d4eea4c88123329534a2fd,
        type: 3}
      propertyPath: m_LocalEulerAnglesHint.y
      value: 0
      objectReference: {fileID: 0}
    - target: {fileID: -4216859302048453862, guid: 4c12332910d4eea4c88123329534a2fd,
        type: 3}
      propertyPath: m_LocalEulerAnglesHint.z
      value: 0
      objectReference: {fileID: 0}
    - target: {fileID: -4216859302048453862, guid: 4c12332910d4eea4c88123329534a2fd,
        type: 3}
      propertyPath: m_LocalScale.x
      value: 2.6121387
      objectReference: {fileID: 0}
    - target: {fileID: -4216859302048453862, guid: 4c12332910d4eea4c88123329534a2fd,
        type: 3}
      propertyPath: m_LocalScale.y
      value: 2.6103165
      objectReference: {fileID: 0}
    - target: {fileID: -4216859302048453862, guid: 4c12332910d4eea4c88123329534a2fd,
        type: 3}
      propertyPath: m_LocalScale.z
      value: 2.6103165
      objectReference: {fileID: 0}
    - target: {fileID: -927199367670048503, guid: 4c12332910d4eea4c88123329534a2fd,
        type: 3}
      propertyPath: m_Name
      value: thiefStrap (2)
      objectReference: {fileID: 0}
    m_RemovedComponents: []
  m_SourcePrefab: {fileID: 100100000, guid: 4c12332910d4eea4c88123329534a2fd, type: 3}
--- !u!4 &2349934359849954855 stripped
Transform:
  m_CorrespondingSourceObject: {fileID: -4216859302048453862, guid: 4c12332910d4eea4c88123329534a2fd,
    type: 3}
  m_PrefabInstance: {fileID: 7342573933676119357}
  m_PrefabAsset: {fileID: 0}
