%YAML 1.1
%TAG !u! tag:unity3d.com,2011:
--- !u!114 &11400000
MonoBehaviour:
  m_ObjectHideFlags: 0
  m_CorrespondingSourceObject: {fileID: 0}
  m_PrefabInstance: {fileID: 0}
  m_PrefabAsset: {fileID: 0}
  m_GameObject: {fileID: 0}
  m_Enabled: 1
  m_EditorHideFlags: 0
  m_Script: {fileID: 11500000, guid: 80eb1a9950fd64744955858144f533d2, type: 3}
  m_Name: PenHolder
  m_EditorClassIdentifier: 
  sprite: {fileID: 21300000, guid: 7121c573a38774fa5ae98a37aaa90f2f, type: 3}
  shoppingMethod: 1
  itemPrice: 500
