%YAML 1.1
%TAG !u! tag:unity3d.com,2011:
--- !u!1 &1550639008334416398
GameObject:
  m_ObjectHideFlags: 0
  m_CorrespondingSourceObject: {fileID: 0}
  m_PrefabInstance: {fileID: 0}
  m_PrefabAsset: {fileID: 0}
  serializedVersion: 6
  m_Component:
  - component: {fileID: 5371979666736614029}
  m_Layer: 0
  m_Name: PaintingItem
  m_TagString: Untagged
  m_Icon: {fileID: 0}
  m_NavMeshLayer: 0
  m_StaticEditorFlags: 0
  m_IsActive: 1
--- !u!4 &5371979666736614029
Transform:
  m_ObjectHideFlags: 0
  m_CorrespondingSourceObject: {fileID: 0}
  m_PrefabInstance: {fileID: 0}
  m_PrefabAsset: {fileID: 0}
  m_GameObject: {fileID: 1550639008334416398}
  m_LocalRotation: {x: 0, y: 0, z: 0, w: 1}
  m_LocalPosition: {x: 0, y: 0, z: 0}
  m_LocalScale: {x: 1, y: 1, z: 1}
  m_Children:
  - {fileID: 3144215148331825527}
  m_Father: {fileID: 0}
  m_RootOrder: 0
  m_LocalEulerAnglesHint: {x: 0, y: 0, z: 0}
--- !u!1001 &7987358008728474221
PrefabInstance:
  m_ObjectHideFlags: 0
  serializedVersion: 2
  m_Modification:
    m_TransformParent: {fileID: 5371979666736614029}
    m_Modifications:
    - target: {fileID: -4216859302048453862, guid: 9b262a5fc270e0348971aeee145ad1d4,
        type: 3}
      propertyPath: m_LocalPosition.x
      value: -0
      objectReference: {fileID: 0}
    - target: {fileID: -4216859302048453862, guid: 9b262a5fc270e0348971aeee145ad1d4,
        type: 3}
      propertyPath: m_LocalPosition.y
      value: 0.052
      objectReference: {fileID: 0}
    - target: {fileID: -4216859302048453862, guid: 9b262a5fc270e0348971aeee145ad1d4,
        type: 3}
      propertyPath: m_LocalPosition.z
      value: 0
      objectReference: {fileID: 0}
    - target: {fileID: -4216859302048453862, guid: 9b262a5fc270e0348971aeee145ad1d4,
        type: 3}
      propertyPath: m_LocalRotation.x
      value: -0.5
      objectReference: {fileID: 0}
    - target: {fileID: -4216859302048453862, guid: 9b262a5fc270e0348971aeee145ad1d4,
        type: 3}
      propertyPath: m_LocalRotation.y
      value: 0.5
      objectReference: {fileID: 0}
    - target: {fileID: -4216859302048453862, guid: 9b262a5fc270e0348971aeee145ad1d4,
        type: 3}
      propertyPath: m_LocalRotation.z
      value: 0.5
      objectReference: {fileID: 0}
    - target: {fileID: -4216859302048453862, guid: 9b262a5fc270e0348971aeee145ad1d4,
        type: 3}
      propertyPath: m_LocalRotation.w
      value: 0.5
      objectReference: {fileID: 0}
    - target: {fileID: -4216859302048453862, guid: 9b262a5fc270e0348971aeee145ad1d4,
        type: 3}
      propertyPath: m_RootOrder
      value: 0
      objectReference: {fileID: 0}
    - target: {fileID: -4216859302048453862, guid: 9b262a5fc270e0348971aeee145ad1d4,
        type: 3}
      propertyPath: m_LocalEulerAnglesHint.x
      value: -90
      objectReference: {fileID: 0}
    - target: {fileID: -4216859302048453862, guid: 9b262a5fc270e0348971aeee145ad1d4,
        type: 3}
      propertyPath: m_LocalEulerAnglesHint.y
      value: 0
      objectReference: {fileID: 0}
    - target: {fileID: -4216859302048453862, guid: 9b262a5fc270e0348971aeee145ad1d4,
        type: 3}
      propertyPath: m_LocalEulerAnglesHint.z
      value: 90
      objectReference: {fileID: 0}
    - target: {fileID: -4216859302048453862, guid: 9b262a5fc270e0348971aeee145ad1d4,
        type: 3}
      propertyPath: m_LocalScale.x
      value: 0.6192837
      objectReference: {fileID: 0}
    - target: {fileID: -4216859302048453862, guid: 9b262a5fc270e0348971aeee145ad1d4,
        type: 3}
      propertyPath: m_LocalScale.y
      value: 0.6192837
      objectReference: {fileID: 0}
    - target: {fileID: -4216859302048453862, guid: 9b262a5fc270e0348971aeee145ad1d4,
        type: 3}
      propertyPath: m_LocalScale.z
      value: 0.6192837
      objectReference: {fileID: 0}
    - target: {fileID: -1504981713932161579, guid: 9b262a5fc270e0348971aeee145ad1d4,
        type: 3}
      propertyPath: m_Materials.Array.data[0]
      value: 
      objectReference: {fileID: 2100000, guid: 740a132dd7dfb1946abba596e2728ed6, type: 2}
    - target: {fileID: -927199367670048503, guid: 9b262a5fc270e0348971aeee145ad1d4,
        type: 3}
      propertyPath: m_Name
      value: Painting
      objectReference: {fileID: 0}
    m_RemovedComponents: []
  m_SourcePrefab: {fileID: 100100000, guid: 9b262a5fc270e0348971aeee145ad1d4, type: 3}
--- !u!4 &3144215148331825527 stripped
Transform:
  m_CorrespondingSourceObject: {fileID: -4216859302048453862, guid: 9b262a5fc270e0348971aeee145ad1d4,
    type: 3}
  m_PrefabInstance: {fileID: 7987358008728474221}
  m_PrefabAsset: {fileID: 0}
